{
  "project_info": {
    "project_number": "777989220008",
    "firebase_url": "https://pidencio-a0605.firebaseio.com",
    "project_id": "pidencio-a0605",
    "storage_bucket": "pidencio-a0605.appspot.com"
  },
  "client": [
    {
      "client_info": {
        "mobilesdk_app_id": "1:777989220008:android:6861ef9561d3a0724cc49d",
        "android_client_info": {
          "package_name": "com.pideteq.pidencio"
        }
      },
      "oauth_client": [
        {
          "client_id": "777989220008-o3ngrpmclgtt8nb5gil6366dh2c2h3ji.apps.googleusercontent.com",
          "client_type": 1,
          "android_info": {
            "package_name": "com.pideteq.pidencio",
            "certificate_hash": "d777346e4aeceb2e78b79768918d7f384a112615"
          }
        },
        {
          "client_id": "777989220008-kbu9elfbqgrni7f078l9m7ssuurgsbs2.apps.googleusercontent.com",
          "client_type": 3
        }
      ],
      "api_key": [
        {
          "current_key": "AIzaSyCTO6wIU-wBAYgUBzhxTX5A80MRTHoYJco"
        }
      ],
      "services": {
        "appinvite_service": {
          "other_platform_oauth_client": [
            {
              "client_id": "777989220008-kbu9elfbqgrni7f078l9m7ssuurgsbs2.apps.googleusercontent.com",
              "client_type": 3
            }
          ]
        }
      }
    }
  ],
  "configuration_version": "1"
}